\relax 
\@writefile{toc}{\contentsline {section}{\numberline {1}PURPOSE}{1}}
\@writefile{toc}{\contentsline {section}{\numberline {2}INPUT}{1}}
\@writefile{toc}{\contentsline {section}{\numberline {3}OUTPUT}{2}}
\@writefile{toc}{\contentsline {section}{\numberline {4}OPTIONS}{2}}
\@writefile{toc}{\contentsline {section}{\numberline {5}ALGORITHM}{2}}
\@writefile{toc}{\contentsline {subsection}{\numberline {5.1}Input}{2}}
\@writefile{toc}{\contentsline {subsection}{\numberline {5.2}Scatter}{2}}
\@writefile{toc}{\contentsline {subsection}{\numberline {5.3}Calculations}{3}}
\@writefile{toc}{\contentsline {subsection}{\numberline {5.4}Output}{3}}
\@writefile{toc}{\contentsline {section}{\numberline {6}DEBUGGING MODE}{3}}
